Count,Word,Translation
8433,o,o
4523,de,de
2452,que,que
2181,e,e
2057,em,en
1946,um,a
1621,ser,être
1311,não,non
1291,a,a
1215,ele,lui
1208,se,si
1119,para,à
949,estar,être
819,ter,avoir
733,com,avec
699,por,par
631,você,vous
630,dizer,dire
524,seu,son
520,ir,aller
504,mas,mais
451,eu,moi
339,mais,plus
329,fazer,faire
326,poder,pouvoir
323,muito,très
310,como,comme
294,quando,quand
285,saber,savoir
279,coisa,chose
261,todo,tous
245,ver,voir
243,eles,les
228,parecer,avis
203,ela,son
201,outro,autre
196,ficar,séjour
192,algum,certains
191,isso,que
185,vez,temps
185,dar,donner
175,bem,bien
173,querer,vouloir
171,bom,bon
165,falar,parler
163,achar,trouver
162,haver,existent
159,perguntar,demander
157,cabeça,tête
153,dois,deux
151,olhar,regarder
145,grande,important
144,passar,passer
140,duda,duda
138,tentar,essayer
137,então,puis
137,mesmo,vraiment
137,porta,porte
136,olho,œil
136,agora,maintenant
136,até,jusqu'à
136,já,déjà
130,nada,rien
129,aquele,que
126,só,seulement
124,sem,sans
123,tio,oncle
119,dever,devoir
118,neville,neville
117,sair,sortir
117,nem,ni
116,casa,domicile
116,válter,válter
115,tão,donc
114,deixar,laisser
113,quem,qui
113,esse,que
112,nunca,jamais
112,alto,élevé
110,primeiro,premier
110,aqui,ici
109,lado,côté
108,porque,parce que
107,pessoa,personne
104,depois,puis
103,conseguir,obtenir
102,meu,mon
102,grifinória,Gryffondor
101,mão,main
100,tempo,temps
100,pensar,penser
100,dia,jour
100,chegar,arriver
99,ouvir,écouter
99,começar,commencer
96,ano,année
93,noite,nuit
93,responder,répondre
92,ou,ou
91,encontrar,trouver
91,pedra,pierre
90,quase,presque
90,lá,là
89,nós,nous
89,antes,avant
89,entrar,entrer
88,esperar,attendre
88,enquanto,alors que
88,onde,où
88,vassoura,balai
87,tudo,tout
87,ah,ah
85,profa,enseignant
85,voltar,retour
84,fora,sortir
83,sala,salon
82,voz,voix
81,volta,retour
80,hora,temps
78,este,cette
78,sr,mr
78,andar,plancher
77,vir,venir
74,ainda,encore
74,carta,lettre
74,escola,l'école
73,três,trois
73,levar,prendre
73,chão,plancher
72,também,également
72,contar,dire
71,parar,arrêter
71,correr,courir
71,continuar,continuer
71,livro,livre
69,sobre,à propos de
69,cima,sommet
69,alguém,quelqu'un
69,bater,frapper
69,pai,père
67,lugar,lieu
67,menino,garçon
67,rosto,visage
67,cair,chute
66,precisar,besoin
65,aluno,étudiant
64,capa,couverture
64,ali,là
62,ninguém,personne
62,cara,visage
62,tia,tante
62,aula,classe
62,quadribol,quadribol
61,tirar,supprimer
61,sempre,toujours
61,gritar,crier
61,lembrar,se souvenir
61,frente,avant
61,dragão,dragon
60,sonserina,sonserina
59,talvez,peut-être
59,mesa,table
58,meio,moyen
58,coruja,hibou
58,sentir,sentir
58,prof,prof
57,acontecer,se produire
57,pouco,petit
57,depressa,rapidement
57,petúnia,pétunia
57,claro,clair
57,dentro,à l'intérieur
56,apanhar,attraper
56,virar,tourner
56,segundo,deuxième
56,ponto,point
56,pé,pied
55,espelho,miroir
55,abrir,ouvert
55,acabar,fin
55,corredor,couloir
54,garoto,garçon
54,gente,les personnes
54,isto,cette
54,seguinte,suivant
54,cada,chacun
53,mundo,monde
53,senhor,Monsieur
53,aí,là
53,procurar,recherche
52,novo,nouveau
52,repente,soudainement
52,nome,nom
52,lo,lo
52,rúbeo,pubescent
51,direção,direction
51,ar,l'air
51,perder,perdre
50,sentar,s'asseoir
50,velho,ancien
